1548975600 quark garak
1548975600 brunt quark
1548975600 lilac garak
1548975900 quark garak
1548975900 brunt quark
1548975900 lilac garak
1548976200 quark garak
1548976200 brunt quark
1548976200 lilac garak
1548976500 quark garak
1548976500 brunt quark
1548976500 lilac garak
1548976800 quark garak
1548976800 brunt quark
1548976800 lilac garak
1548977100 quark garak
1548977100 brunt quark
1548977100 lilac garak
1548977400 quark garak
1548977400 brunt quark
1548977400 lilac garak
1548977700 quark garak
1548977700 brunt quark
1548977700 lilac garak
1548978000 quark garak
1548978000 brunt quark
1548978000 lilac garak
1548978300 quark garak
1548978300 brunt quark
1548978300 lilac garak
1548978600 quark garak
1548978600 brunt quark
1548978600 lilac garak
1548978900 quark garak
1548978900 brunt quark
1548978900 lilac garak
1548979200 quark garak
1548979200 brunt quark
1548979200 lilac garak
1548979500 quark garak
1548979500 brunt quark
1548979500 lilac garak
1548979800 quark garak
1548979800 brunt quark
1548979800 lilac garak
1548980100 quark garak
1548980100 brunt quark
1548980100 lilac garak
1548980400 quark garak
1548980400 brunt quark
1548980400 lilac garak
1548980700 quark garak
1548980700 brunt quark
1548980700 lilac garak
1548981000 quark garak
1548981000 brunt quark
1548981000 lilac garak
1548981300 quark garak
1548981300 brunt quark
1548981300 lilac garak
1548981600 quark garak
1548981600 brunt quark
1548981600 lilac garak
1548981900 quark garak
1548981900 brunt quark
1548981900 lilac garak
1548982200 quark garak
1548982200 brunt quark
1548982200 lilac garak
1548982500 quark garak
1548982500 brunt quark
1548982500 lilac garak
1548982800 quark garak
1548982800 brunt quark
1548982800 lilac garak
1548983100 quark garak
1548983100 brunt quark
1548983100 lilac garak
1548983400 quark garak
1548983400 brunt quark
1548983400 lilac garak
1548983700 quark garak
1548983700 brunt quark
1548983700 lilac garak
1548984000 quark garak
1548984000 brunt quark
1548984000 lilac garak
1548984300 quark garak
1548984300 brunt quark
1548984300 lilac garak
1548984600 quark garak
1548984600 brunt quark
1548984600 lilac garak
1548984900 quark garak
1548984900 brunt quark
1548984900 lilac garak
1548985200 quark garak
1548985200 brunt quark
1548985200 lilac garak
1548985500 quark garak
1548985500 brunt quark
1548985500 lilac garak
1548985800 quark garak
1548985800 brunt quark
1548985800 lilac garak
1548986100 quark garak
1548986100 brunt quark
1548986100 lilac garak
1548986400 quark garak
1548986400 brunt quark
1548986400 lilac garak
1548986700 quark garak
1548986700 brunt quark
1548986700 lilac garak
1548987000 quark garak
1548987000 brunt quark
1548987000 lilac garak
1548987300 quark garak
1548987300 brunt quark
1548987300 lilac garak
1548987600 quark garak
1548987600 brunt quark
1548987600 lilac garak
1548987900 quark garak
1548987900 brunt quark
1548987900 lilac garak
1548988200 quark garak
1548988200 brunt quark
1548988200 lilac garak
1548988500 quark garak
1548988500 brunt quark
1548988500 lilac garak
1548988800 quark garak
1548988800 brunt quark
1548988800 lilac garak
1548989100 quark garak
1548989100 brunt quark
1548989100 lilac garak
1548989400 quark garak
1548989400 brunt quark
1548989400 lilac garak
1548989700 quark garak
1548989700 brunt quark
1548989700 lilac garak
1548990000 quark garak
1548990000 brunt quark
1548990000 lilac garak
1548990300 quark garak
1548990300 brunt quark
1548990300 lilac garak
1548990600 quark garak
1548990600 brunt quark
1548990600 lilac garak
1548990900 quark garak
1548990900 brunt quark
1548990900 lilac garak
1548991200 quark garak
1548991200 brunt quark
1548991200 lilac garak
1548991500 quark garak
1548991500 brunt quark
1548991500 lilac garak
1548991800 quark garak
1548991800 brunt quark
1548991800 lilac garak
1548992100 quark garak
1548992100 brunt quark
1548992100 lilac garak
1548992400 quark garak
1548992400 brunt quark
1548992400 lilac garak
1548992700 quark garak
1548992700 brunt quark
1548992700 lilac garak
1548993000 quark garak
1548993000 brunt quark
1548993000 lilac garak
1548993300 quark garak
1548993300 brunt quark
1548993300 lilac garak
1548993600 quark garak
1548993600 brunt quark
1548993600 lilac garak
1548993900 quark garak
1548993900 brunt quark
1548993900 lilac garak
1548994200 quark garak
1548994200 brunt quark
1548994200 lilac garak
1548994500 quark garak
1548994500 brunt quark
1548994500 lilac garak
1548994800 quark garak
1548994800 brunt quark
1548994800 lilac garak
1548995100 quark garak
1548995100 brunt quark
1548995100 lilac garak
1548995400 quark garak
1548995400 brunt quark
1548995400 lilac garak
1548995700 quark garak
1548995700 brunt quark
1548995700 lilac garak
1548996000 quark garak
1548996000 brunt quark
1548996000 lilac garak
1548996300 quark garak
1548996300 brunt quark
1548996300 lilac garak
1548996600 quark garak
1548996600 brunt quark
1548996600 lilac garak
1548996900 quark garak
1548996900 brunt quark
1548996900 lilac garak
1548997200 quark garak
1548997200 brunt quark
1548997200 lilac garak
1548997500 quark garak
1548997500 brunt quark
1548997500 lilac garak
1548997800 quark garak
1548997800 brunt quark
1548997800 lilac garak
1548998100 quark garak
1548998100 brunt quark
1548998100 lilac garak
1548998400 quark garak
1548998400 brunt quark
1548998400 lilac garak
1548998700 quark garak
1548998700 brunt quark
1548998700 lilac garak
1548999000 quark garak
1548999000 brunt quark
1548999000 lilac garak
1548999300 quark garak
1548999300 brunt quark
1548999300 lilac garak
1548999600 quark garak
1548999600 brunt quark
1548999600 lilac garak
1548999900 quark garak
1548999900 brunt quark
1548999900 lilac garak
1549000200 quark garak
1549000200 brunt quark
1549000200 lilac garak
1549000500 quark garak
1549000500 brunt quark
1549000500 lilac garak
1549000800 quark garak
1549000800 brunt quark
1549000800 lilac garak
1549001100 quark garak
1549001100 brunt quark
1549001100 lilac garak
1549001400 quark garak
1549001400 brunt quark
1549001400 lilac garak
1549001700 quark garak
1549001700 brunt quark
1549001700 lilac garak
1549002000 quark garak
1549002000 brunt quark
1549002000 lilac garak
1549002300 quark garak
1549002300 brunt quark
1549002300 lilac garak
1549002600 quark garak
1549002600 brunt quark
1549002600 lilac garak
1549002900 quark garak
1549002900 brunt quark
1549002900 lilac garak
1549003200 quark garak
1549003200 brunt quark
1549003200 lilac garak
1549003500 quark garak
1549003500 brunt quark
1549003500 lilac garak
1549003800 quark garak
1549003800 brunt quark
1549003800 lilac garak
1549004100 quark garak
1549004100 brunt quark
1549004100 lilac garak
1549004400 quark garak
1549004400 brunt quark
1549004400 lilac garak
1549004700 quark garak
1549004700 brunt quark
1549004700 lilac garak
1549005000 quark garak
1549005000 brunt quark
1549005000 lilac garak
1549005300 quark garak
1549005300 brunt quark
1549005300 lilac garak
1549005600 quark garak
1549005600 brunt quark
1549005600 lilac garak
1549005900 quark garak
1549005900 brunt quark
1549005900 lilac garak
1549006200 quark garak
1549006200 brunt quark
1549006200 lilac garak
1549006500 quark garak
1549006500 brunt quark
1549006500 lilac garak
1549006800 quark garak
1549006800 brunt quark
1549006800 lilac garak
1549007100 quark garak
1549007100 brunt quark
1549007100 lilac garak
1549007400 quark garak
1549007400 brunt quark
1549007400 lilac garak
1549007700 quark garak
1549007700 brunt quark
1549007700 lilac garak
1549008000 quark garak
1549008000 brunt quark
1549008000 lilac garak
1549008300 quark garak
1549008300 brunt quark
1549008300 lilac garak
1549008600 quark garak
1549008600 brunt quark
1549008600 lilac garak
1549008900 quark garak
1549008900 brunt quark
1549008900 lilac garak
1549009200 quark garak
1549009200 brunt quark
1549009200 lilac garak
1549009500 quark garak
1549009500 brunt quark
1549009500 lilac garak
1549009800 quark garak
1549009800 brunt quark
1549009800 lilac garak
1549010100 quark garak
1549010100 brunt quark
1549010100 lilac garak
1549010400 quark garak
1549010400 brunt quark
1549010400 lilac garak
1549010700 quark garak
1549010700 brunt quark
1549010700 lilac garak
1549011000 quark garak
1549011000 brunt quark
1549011000 lilac garak
1549011300 quark garak
1549011300 brunt quark
1549011300 lilac garak
1549011600 quark garak
1549011600 brunt quark
1549011600 lilac garak
1549011900 quark garak
1549011900 brunt quark
1549011900 lilac garak
1549012200 quark garak
1549012200 brunt quark
1549012200 lilac garak
1549012500 quark garak
1549012500 brunt quark
1549012500 lilac garak
1549012800 quark garak
1549012800 brunt quark
1549012800 lilac garak
1549013100 quark garak
1549013100 brunt quark
1549013100 lilac garak
1549013400 quark garak
1549013400 brunt quark
1549013400 lilac garak
1549013700 quark garak
1549013700 brunt quark
1549013700 lilac garak
1549014000 quark garak
1549014000 brunt quark
1549014000 lilac garak
1549014300 quark garak
1549014300 brunt quark
1549014300 lilac garak
1549014600 quark garak
1549014600 brunt quark
1549014600 lilac garak
1549014900 quark garak
1549014900 brunt quark
1549014900 lilac garak
1549015200 quark garak
1549015200 brunt quark
1549015200 lilac garak
1549015500 quark garak
1549015500 brunt quark
1549015500 lilac garak
1549015800 quark garak
1549015800 brunt quark
1549015800 lilac garak
1549016100 quark garak
1549016100 brunt quark
1549016100 lilac garak
1549016400 quark garak
1549016400 brunt quark
1549016400 lilac garak
1549016700 quark garak
1549016700 brunt quark
1549016700 lilac garak
1549017000 quark garak
1549017000 brunt quark
1549017000 lilac garak
1549017300 quark garak
1549017300 brunt quark
1549017300 lilac garak
1549017600 quark garak
1549017600 brunt quark
1549017600 lilac garak
1549017900 quark garak
1549017900 brunt quark
1549017900 lilac garak
1549018200 quark garak
1549018200 brunt quark
1549018200 lilac garak
1549018500 quark garak
1549018500 brunt quark
1549018500 lilac garak
1549018800 quark garak
1549018800 brunt quark
1549018800 lilac garak
1549019100 quark garak
1549019100 brunt quark
1549019100 lilac garak
1549019400 quark garak
1549019400 brunt quark
1549019400 lilac garak
1549019700 quark garak
1549019700 brunt quark
1549019700 lilac garak
1549020000 quark garak
1549020000 brunt quark
1549020000 lilac garak
1549020300 quark garak
1549020300 brunt quark
1549020300 lilac garak
1549020600 quark garak
1549020600 brunt quark
1549020600 lilac garak
1549020900 quark garak
1549020900 brunt quark
1549020900 lilac garak
1549021200 quark garak
1549021200 brunt quark
1549021200 lilac garak
1549021500 quark garak
1549021500 brunt quark
1549021500 lilac garak
1549021800 quark garak
1549021800 brunt quark
1549021800 lilac garak
1549022100 quark garak
1549022100 brunt quark
1549022100 lilac garak
1549022400 quark garak
1549022400 brunt quark
1549022400 lilac garak
1549022700 quark garak
1549022700 brunt quark
1549022700 lilac garak
1549023000 quark garak
1549023000 brunt quark
1549023000 lilac garak
1549023300 quark garak
1549023300 brunt quark
1549023300 lilac garak
1549023600 quark garak
1549023600 brunt quark
1549023600 lilac garak
1549023900 quark garak
1549023900 brunt quark
1549023900 lilac garak
1549024200 quark garak
1549024200 brunt quark
1549024200 lilac garak
1549024500 quark garak
1549024500 brunt quark
1549024500 lilac garak
1549024800 quark garak
1549024800 brunt quark
1549024800 lilac garak
1549025100 quark garak
1549025100 brunt quark
1549025100 lilac garak
1549025400 quark garak
1549025400 brunt quark
1549025400 lilac garak
1549025700 quark garak
1549025700 brunt quark
1549025700 lilac garak
1549026000 quark garak
1549026000 brunt quark
1549026000 lilac garak
1549026300 quark garak
1549026300 brunt quark
1549026300 lilac garak
1549026600 quark garak
1549026600 brunt quark
1549026600 lilac garak
1549026900 quark garak
1549026900 brunt quark
1549026900 lilac garak
1549027200 quark garak
1549027200 brunt quark
1549027200 lilac garak
1549027500 quark garak
1549027500 brunt quark
1549027500 lilac garak
1549027800 quark garak
1549027800 brunt quark
1549027800 lilac garak
1549028100 quark garak
1549028100 brunt quark
1549028100 lilac garak
1549028400 quark garak
1549028400 brunt quark
1549028400 lilac garak
1549028700 quark garak
1549028700 brunt quark
1549028700 lilac garak
1549029000 quark garak
1549029000 brunt quark
1549029000 lilac garak
1549029300 quark garak
1549029300 brunt quark
1549029300 lilac garak
1549029600 quark garak
1549029600 brunt quark
1549029600 lilac garak
1549029900 quark garak
1549029900 brunt quark
1549029900 lilac garak
1549030200 quark garak
1549030200 brunt quark
1549030200 lilac garak
1549030500 quark garak
1549030500 brunt quark
1549030500 lilac garak
1549030800 quark garak
1549030800 brunt quark
1549030800 lilac garak
1549031100 quark garak
1549031100 brunt quark
1549031100 lilac garak
1549031400 quark garak
1549031400 brunt quark
1549031400 lilac garak
1549031700 quark garak
1549031700 brunt quark
1549031700 lilac garak
1549032000 quark garak
1549032000 brunt quark
1549032000 lilac garak
1549032300 quark garak
1549032300 brunt quark
1549032300 lilac garak
1549032600 quark garak
1549032600 brunt quark
1549032600 lilac garak
1549032900 quark garak
1549032900 brunt quark
1549032900 lilac garak
1549033200 quark garak
1549033200 brunt quark
1549033200 lilac garak
1549033500 quark garak
1549033500 brunt quark
1549033500 lilac garak
1549033800 quark garak
1549033800 brunt quark
1549033800 lilac garak
1549034100 quark garak
1549034100 brunt quark
1549034100 lilac garak
1549034400 quark garak
1549034400 brunt quark
1549034400 lilac garak
1549034700 quark garak
1549034700 brunt quark
1549034700 lilac garak
1549035000 quark garak
1549035000 brunt quark
1549035000 lilac garak
1549035300 quark garak
1549035300 brunt quark
1549035300 lilac garak
1549035600 quark garak
1549035600 brunt quark
1549035600 lilac garak
1549035900 quark garak
1549035900 brunt quark
1549035900 lilac garak
1549036200 quark garak
1549036200 brunt quark
1549036200 lilac garak
1549036500 quark garak
1549036500 brunt quark
1549036500 lilac garak
1549036800 quark garak
1549036800 brunt quark
1549036800 lilac garak
1549037100 quark garak
1549037100 brunt quark
1549037100 lilac garak
1549037400 quark garak
1549037400 brunt quark
1549037400 lilac garak
1549037700 quark garak
1549037700 brunt quark
1549037700 lilac garak
1549038000 quark garak
1549038000 brunt quark
1549038000 lilac garak
1549038300 quark garak
1549038300 brunt quark
1549038300 lilac garak
1549038600 quark garak
1549038600 brunt quark
1549038600 lilac garak
1549038900 quark garak
1549038900 brunt quark
1549038900 lilac garak
1549039200 quark garak
1549039200 brunt quark
1549039200 lilac garak
1549039500 quark garak
1549039500 brunt quark
1549039500 lilac garak
1549039800 quark garak
1549039800 brunt quark
1549039800 lilac garak
1549040100 quark garak
1549040100 brunt quark
1549040100 lilac garak
1549040400 quark garak
1549040400 brunt quark
1549040400 lilac garak
1549040700 quark garak
1549040700 brunt quark
1549040700 lilac garak
1549041000 quark garak
1549041000 brunt quark
1549041000 lilac garak
1549041300 quark garak
1549041300 brunt quark
1549041300 lilac garak
1549041600 quark garak
1549041600 brunt quark
1549041600 lilac garak
1549041900 quark garak
1549041900 brunt quark
1549041900 lilac garak
1549042200 quark garak
1549042200 brunt quark
1549042200 lilac garak
1549042500 quark garak
1549042500 brunt quark
1549042500 lilac garak
1549042800 quark garak
1549042800 brunt quark
1549042800 lilac garak
1549043100 quark garak
1549043100 brunt quark
1549043100 lilac garak
1549043400 quark garak
1549043400 brunt quark
1549043400 lilac garak
1549043700 quark garak
1549043700 brunt quark
1549043700 lilac garak
1549044000 quark garak
1549044000 brunt quark
1549044000 lilac garak
1549044300 quark garak
1549044300 brunt quark
1549044300 lilac garak
1549044600 quark garak
1549044600 brunt quark
1549044600 lilac garak
1549044900 quark garak
1549044900 brunt quark
1549044900 lilac garak
1549045200 quark garak
1549045200 brunt quark
1549045200 lilac garak
1549045500 quark garak
1549045500 brunt quark
1549045500 lilac garak
1549045800 quark garak
1549045800 brunt quark
1549045800 lilac garak
1549046100 quark garak
1549046100 brunt quark
1549046100 lilac garak
1549046400 quark garak
1549046400 brunt quark
1549046400 lilac garak
1549046700 quark garak
1549046700 brunt quark
1549046700 lilac garak
1549047000 quark garak
1549047000 brunt quark
1549047000 lilac garak
1549047300 quark garak
1549047300 brunt quark
1549047300 lilac garak
1549047600 quark garak
1549047600 brunt quark
1549047600 lilac garak
1549047900 quark garak
1549047900 brunt quark
1549047900 lilac garak
1549048200 quark garak
1549048200 brunt quark
1549048200 lilac garak
1549048500 quark garak
1549048500 brunt quark
1549048500 lilac garak
1549048800 quark garak
1549048800 brunt quark
1549048800 lilac garak
1549049100 quark garak
1549049100 brunt quark
1549049100 lilac garak
1549049400 quark garak
1549049400 brunt quark
1549049400 lilac garak
1549049700 quark garak
1549049700 brunt quark
1549049700 lilac garak
1549050000 quark garak
1549050000 brunt quark
1549050000 lilac garak
1549050300 quark garak
1549050300 brunt quark
1549050300 lilac garak
1549050600 quark garak
1549050600 brunt quark
1549050600 lilac garak
1549050900 quark garak
1549050900 brunt quark
1549050900 lilac garak
1549051200 quark garak
1549051200 brunt quark
1549051200 lilac garak
1549051500 quark garak
1549051500 brunt quark
1549051500 lilac garak
1549051800 quark garak
1549051800 brunt quark
1549051800 lilac garak
1549052100 quark garak
1549052100 brunt quark
1549052100 lilac garak
1549052400 quark garak
1549052400 brunt quark
1549052400 lilac garak
1549052700 quark garak
1549052700 brunt quark
1549052700 lilac garak
1549053000 quark garak
1549053000 brunt quark
1549053000 lilac garak
1549053300 quark garak
1549053300 brunt quark
1549053300 lilac garak
1549053600 quark garak
1549053600 brunt quark
1549053600 lilac garak
1549053900 quark garak
1549053900 brunt quark
1549053900 lilac garak
1549054200 quark garak
1549054200 brunt quark
1549054200 lilac garak
1549054500 quark garak
1549054500 brunt quark
1549054500 lilac garak
1549054800 quark garak
1549054800 brunt quark
1549054800 lilac garak
1549055100 quark garak
1549055100 brunt quark
1549055100 lilac garak
1549055400 quark garak
1549055400 brunt quark
1549055400 lilac garak
1549055700 quark garak
1549055700 brunt quark
1549055700 lilac garak
1549056000 quark garak
1549056000 brunt quark
1549056000 lilac garak
1549056300 quark garak
1549056300 brunt quark
1549056300 lilac garak
1549056600 quark garak
1549056600 brunt quark
1549056600 lilac garak
1549056900 quark garak
1549056900 brunt quark
1549056900 lilac garak
1549057200 quark garak
1549057200 brunt quark
1549057200 lilac garak
1549057500 quark garak
1549057500 brunt quark
1549057500 lilac garak
1549057800 quark garak
1549057800 brunt quark
1549057800 lilac garak
1549058100 quark garak
1549058100 brunt quark
1549058100 lilac garak
1549058400 quark garak
1549058400 brunt quark
1549058400 lilac garak
1549058700 quark garak
1549058700 brunt quark
1549058700 lilac garak
1549059000 quark garak
1549059000 brunt quark
1549059000 lilac garak
1549059300 quark garak
1549059300 brunt quark
1549059300 lilac garak
1549059600 quark garak
1549059600 brunt quark
1549059600 lilac garak
1549059900 quark garak
1549059900 brunt quark
1549059900 lilac garak
1549060200 quark garak
1549060200 brunt quark
1549060200 lilac garak
1549060500 quark garak
1549060500 brunt quark
1549060500 lilac garak
1549060800 quark garak
1549060800 brunt quark
1549060800 lilac garak
1549061100 quark garak
1549061100 brunt quark
1549061100 lilac garak
1549061400 quark garak
1549061400 brunt quark
1549061400 lilac garak
1549061700 quark garak
1549061700 brunt quark
1549061700 lilac garak